Final_report_description
…
glm_coef_table %>% print(n = 20)

# Random forest variable importance
rf_importance <- importance(rf_full, type = 2) %>%
  as.data.frame() %>%
  rownames_to_column("variable") %>%
  rename(mean_decrease_gini = 2) %>%
  arrange(desc(mean_decrease_gini))

rf_importance %>% slice_head(n = 15)

# A tibble: 70 × 5
   term           estimate std.error statistic p.value
   <chr>             <dbl>     <dbl>     <dbl>   <dbl>
 1 state_factorPR   -16.1     992.     -0.0162  0.987 
 2 state_factorIL   -15.1     279.     -0.0541  0.957 
 3 state_factorOH   -15.0     314.     -0.0478  0.962 
 4 state_factorMD   -14.9     384.     -0.0389  0.969 
 5 state_factorCT   -14.8     605.     -0.0244  0.980 
 6 state_factorMA   -14.7     513.     -0.0287  0.977 
 7 state_factorRI   -14.7     992.     -0.0148  0.988 
 8 state_factorNH   -14.6     543.     -0.0269  0.979 
 9 state_factorME   -14.6     428.     -0.0340  0.973 
10 state_factorVT   -14.6     518.     -0.0281  0.978 
11 (Intercept)       -6.14      2.84   -2.16    0.0305
12 state_factorNY    -3.14      1.76   -1.79    0.0740
13 state_factorNC    -2.85      1.51   -1.89    0.0594
14 state_factorGA    -2.77      1.41   -1.96    0.0500
15 state_factorLA    -2.71      1.44   -1.88    0.0604
16 state_factorSC    -2.70      1.56   -1.73    0.0831
17 state_factorIA    -2.59      1.37   -1.88    0.0599
18 state_factorMS    -2.43      1.36   -1.79    0.0735
19 state_factorSD    -2.31      1.30   -1.78    0.0759
20 state_factorAR    -2.21      1.31   -1.69    0.0907
# ℹ 50 more rows
…
